-32 952
992
152 -48 776
992
-992
-960 -24
-152 832
-8 -136 -200 624
-32 48 -160 -80 40 -152 432
-128 -96 -128 616
-112 -8 856
-64 -96 -144 664
-64 -152 -152 -120 472
-128 -40 80 -112 600
-48 936
-112 -152 -88 616
-72 -64 -96 736
-24 -16 936
-40 -48 -40 -96 736
992
