-16 24 -32 -40 -48 -56 728
-8 8 -400 -80 464
16 -16 16 -16 16 -16 16 -16 16 -16 16 -16 16 -16 16 -16 16 -16 16 -16 -16 488
992
-992
992
-992
-24 24 -24 896
-24 -24 928
24 -24 -24 896
-24 -24 -24 896
424 -40 512
992
