24 -16 -8 -8 -8 888
8 -16 -24 920
40 -32 904
-16 -24 -40 -16 -24 -40 784
40 -24 -16 888
992
136 -56 56 -64 -72 -80 480
992
-40 88 -64 776
8 -16 24 -32 880
-8 -8 -8 -8 -8 -8 -8 -8 -8 -8 832
-56 120 -8 -8 768
136 -8 -24 -32 -40 -48 -56 592
992
32 -40 24 -16 8 -24 -32 -40 -48 -56 592
16 -24 80 -16 24 -320 -16 -80 352
80 -80 -80 728
-80 -80 -80 728
992
-160 240 -320 248
