-8 -40 -16 904
992
-8 -8 -8 -8 -8 -8 -8 880
-24 -32 -80 -40 784
160 -64 -240 -96 400
-80 -80 -40 -72 8 -80 584
-16 -24 -48 -24 -96 744
-136 -8 -8 -8 8 -40 -40 -40 272 -120 232
104 -40 -40 -40 -48 680
-80 120 -80 -88 -96 -24 456
-72 8 -8 56 -40 -40 -40 -80 -72 -8 -8 -8 -16 -32 -48 -40 -48 -32 -16 -16 16 -16 -24 64
-80 -16 -80 792
