24 -72 -56 -56 -40 -32 -48 -24 -64 -24 -16 448
-40 -32 -40 64 -32 -56 -48 -72 544
16 -8 8 -64 -32 -56 -72 680
-24 -40 -32 -56 -56 -40 696
8 -72 -8 -56 -32 -72 -24 -64 592
56 -8 -40 -32 -72 -24 -48 656
-72 -8 -64 -16 -8 -16 -32 720
-16 -32 -40 -48 -64 -40 -72 624
-40 -48 -8 -40 -16 -56 -24 704
-72 -16 -56 -24 -64 -48 -48 -24 -72 496
8 -16 -56 -24 -56 -8 -32 -56 -64 600
-32 -48 -40 -72 -56 704
-16 32 -16 -32 -72 784
8 -24 24 -64 -56 -32 -48 -48 -32 584
-48 -64 -32 -8 -56 -56 680
