56 -16 -40 -32 816
80 -24 -24 -56 -56 712
-992
992
-32 64 -24 -64 -56 712
-8 -8 -8 -8 -8 -8 -8 -8 -8 848
-8 -8 -8 -16 920
72 -40 -48 -32 -48 -48 -48 -32 -32 520
-16 40 -48 -32 -48 768
-40 24 -48 -40 -32 -48 -32 672
40 -32 -24 -80 -64 -48 -72 576
24 -32 32 -80 -56 -40 -48 -64 552
